{% if size == 0 || size == "0" || !size %}{% assign size = "24" %}{% endif %}
<svg xmlns="http://www.w3.org/2000/svg" width="{{ size }}" height="{{ size }}" viewBox="0 0 24 24" class="{{ class }}">
    <path fill="currentColor" d="M20,6H12L10,4H4A2,2 0 0,0 2,6V18A2,2 0 0,0 4,20H20A2,2 0 0,0 22,18V8A2,2 0 0,0 20,6M15,16H6V14H15V16M18,12H6V10H18V12Z" />
</svg>
